{
 "actions": [],
 "allow_rename": 1,
 "autoname": "field:team_name",
 "creation": "2021-11-12 05:05:53.693100",
 "doctype": "DocType",
 "editable_grid": 1,
 "engine": "InnoDB",
 "field_order": [
  "team_name",
  "lark_id"
 ],
 "fields": [
  {
   "fieldname": "team_name",
   "fieldtype": "Data",
   "in_list_view": 1,
   "label": "Team Name",
   "reqd": 1,
   "unique": 1
  },
  {
   "fieldname": "lark_id",
   "fieldtype": "Data",
   "label": "Lark ID"
  }
 ],
 "index_web_pages_for_search": 1,
 "links": [],
 "modified": "2021-12-02 23:05:42.579028",
 "modified_by": "Administrator",
 "module": "DMCI Bank Portal",
 "name": "DMCI Team",
 "naming_rule": "By fieldname",
 "owner": "Administrator",
 "permissions": [
  {
   "create": 1,
   "delete": 1,
   "email": 1,
   "export": 1,
   "print": 1,
   "read": 1,
   "report": 1,
   "role": "System Manager",
   "share": 1,
   "write": 1
  },
  {
   "email": 1,
   "export": 1,
   "print": 1,
   "read": 1,
   "report": 1,
   "role": "Accounts Uploader",
   "share": 1
  },
  {
   "email": 1,
   "export": 1,
   "print": 1,
   "read": 1,
   "report": 1,
   "role": "Account Officer",
   "share": 1
  },
  {
   "email": 1,
   "export": 1,
   "print": 1,
   "read": 1,
   "report": 1,
   "role": "Bank Officer",
   "share": 1
  }
 ],
 "sort_field": "modified",
 "sort_order": "DESC",
 "track_changes": 1
}